…
getExpressionForSamples <- function(sampleIds, expressionMatrix) {
  # use gene column as row name
  dataFrame <- expressionMatrix %>% 
    as.data.frame() %>% 
    column_to_rownames("gene")
  return(dataFrame[sampleIds])
}

expressionDataForGene <- transformGeneExpressionMatrix(expressionMatrix)
expressionDataForGene
```

    ## # A tibble: 7,802,868 x 3
    ##    submitter_id gene   expression
    ##    <chr>        <fct>       <dbl>
    ##  1 TCGA-OE-A75W TSPAN6      0.588
    ##  2 TCGA-2J-AABT TSPAN6      0.439
    ##  3 TCGA-IB-7886 TSPAN6      0.875
    ##  4 TCGA-IB-AAUU TSPAN6      0.552
    ##  5 TCGA-2J-AAB6 TSPAN6      0.571
    ##  6 TCGA-LB-A8F3 TSPAN6      0.798
    ##  7 TCGA-HZ-A4BH TSPAN6      0.763
    ##  8 TCGA-IB-7646 TSPAN6      0.917
    ##  9 TCGA-YB-A89D TSPAN6      0.609
    ## 10 TCGA-Z5-AAPL TSPAN6      0.442
    ## # … with 7,802,858 more rows
…
